{
  "admin": [
    {
      "userName": "admin",
      "passWord": "admin"
    }
  ],


  "blogs": [
    {
      "blogTitle": "Medical/Dental Instruments",
      "blogContent": "vel lectus in quam fringilla rhoncus",
      "blogCategories": [
        "Arts"
      ],
      "blogAuthor": "Ben Robbert",
      "blogDate": "21/11/2018",
      "id": 1
    },
    {
      "blogTitle": "Pharmaceuticals Instruments",
      "blogContent": "nec sem duis aliquam convallis nunc proin",
      "blogCategories": [
        "Arts",
        "Nature",
        "Health"
      ],
      "blogAuthor": "Ben Robbert",
      "blogDate": "29/5/2019",
      "id": 2
    },
    {
      "blogTitle": "Major Banks",
      "blogContent": "magna at nunc commodo placerat praesent blandit",
      "blogCategories": [
        "Nature",
        "Arts"
      ],
      "blogAuthor": "Ken Smith ",
      "blogDate": "16/5/2019",
      "id": 3
    },
    {
      "blogTitle": "Major Pharmaceuticals",
      "blogContent": "dolor morbi vel lectus in quam fringilla rhoncus mauris enim leo",
      "blogCategories": [
        "Arts"
      ],
      "blogAuthor": "Ben Robbert",
      "blogDate": "10/10/2018",
      "id": 4
    },
    {
      "blogTitle": "Auto Parts:O.E.M.",
      "blogContent": "volutpat dui maecenas tristique est et tempus semper est quam pharetra",
      "blogCategories": [
        "Arts",
        "Technology",
        "Health"
      ],
      "blogAuthor": "Ken Smith ",
      "blogDate": "15/9/2018",
      "id": 5
    },
    {
      "blogTitle": "Major Banks",
      "blogContent": "neque sapien placerat ante nulla justo aliquam quis",
      "blogCategories": [
        "Technology",
        "Arts"
      ],
      "blogAuthor": "Ken Smith ",
      "blogDate": "15/4/2019",
      "id": 6
    },
    {
      "blogTitle": "Pharmaceuticals Instruments",
      "blogContent": "molestie sed justo pellentesque viverra pede ac diam cras pellentesque volutpat dui maecenas tristique est",
      "blogCategories": [
        "Technology"
      ],
      "blogAuthor": "Ben Robbert",
      "blogDate": "5/8/2018",
      "id": 7
    },
    {
      "blogTitle": "Major Pharmaceuticals",
      "blogContent": "elementum ligula vehicula consequat morbi a ipsum integer a nibh in quis justo",
      "blogCategories": [
        "Health"
      ],
      "blogAuthor": "Ben Robbert",
      "blogDate": "11/10/2018",
      "id": 8
    },
    {
      "blogTitle": "Industrial Machinery/Components",
      "blogContent": "nulla eget eros elementum pellentesque quisque porta volutpat erat quisque erat eros viverra eget congue",
      "blogCategories": [
        "Nature",
        "Health"
      ],
      "blogAuthor": "Ken Smith ",
      "blogDate": "19/4/2019",
      "id": 9
    },
    {
      "blogTitle": "Home building",
      "blogContent": "nunc donec quis orci eget orci vehicula condimentum",
      "blogCategories": [
        "Nature"
      ],
      "blogAuthor": "Ken Smith ",
      "blogDate": "24/2/2019",
      "id": 10
    },
    {
      "blogTitle": "This is real",
      "blogContent": "Are you sure of what you're talking about? If yes, say yes but if no, say no.",
      "blogCategories": [
        "Arts"
      ],
      "blogAuthor": "Ben Robbert",
      "blogDate": "6/6/2019",
      "id": 11
    },
    {
      "blogTitle": "Whenever you want",
      "blogContent": "It's been made to known that you want say any thing about the thing you want to say, just say it the way you want to say it.",
      "blogCategories": [
        "Arts"
      ],
      "blogAuthor": "Ken Smith",
      "blogDate": "8/6/2019",
      "id": 12
    }
  ]
}